<svg width="120" height="45" viewBox="0 0 120 45" fill="none" xmlns="http://www.w3.org/2000/svg">
<path d="M64.9245 18.9668C62.5569 18.9668 62.3845 19.0739 62.3845 21.6793V27.0857C62.3845 27.6263 61.9487 27.8454 61.4081 27.8454C60.8674 27.8454 60.4316 27.6263 60.4316 27.0857V21.4183C60.4316 17.4683 61.5968 17.1654 64.9245 17.1654C66.8331 17.1654 67.2898 17.3821 67.2898 18.1418C67.29 18.2623 67.2656 18.3816 67.2183 18.4924C67.171 18.6033 67.1016 18.7033 67.0145 18.7866C66.9273 18.8698 66.8242 18.9345 66.7113 18.9767C66.5984 19.0188 66.4781 19.0377 66.3577 19.032C65.9033 19.032 65.598 18.9668 64.9269 18.9668" fill="white"/>
<path d="M75.1471 23.1823H72.1293C70.307 23.1823 69.8922 23.3338 69.8922 24.7669C69.8922 26.0463 70.4584 26.2421 72.5418 26.2421C74.4527 26.2421 75.1471 26.0463 75.1471 25.028V23.1823ZM68.699 18.3422C68.6736 18.1354 68.7297 17.9268 68.8554 17.7607C68.9811 17.5945 69.1666 17.4838 69.3725 17.452C70.5416 17.2586 71.725 17.1643 72.91 17.17C76.2097 17.17 77.1046 18.1464 77.1046 20.6865V24.8811C77.1046 27.5936 75.9114 28.0271 72.5674 28.0271C68.9857 28.0271 67.9883 27.5937 67.9883 24.7926C67.9883 22.5135 68.5079 21.4509 71.57 21.4509H75.1471V20.3439C75.1471 19.258 74.6041 18.9457 72.8028 18.9457C70.7055 18.9457 70.3932 19.23 69.3725 19.23C68.8738 19.23 68.699 18.8386 68.699 18.3399" fill="white"/>
<path d="M84.7627 26.2211C86.888 26.2211 87.6477 26.1768 87.6477 22.6394C87.6477 18.9924 86.888 18.9714 84.7627 18.9714C82.6375 18.9714 81.8964 18.9924 81.8964 22.6394C81.8964 26.1768 82.6142 26.2211 84.7627 26.2211ZM89.5586 22.6953C89.5586 27.2954 88.3002 28.0341 84.7627 28.0341C81.2253 28.0341 80.0508 27.2954 80.0508 22.6953C80.0508 18.0952 81.2159 17.1817 84.7627 17.1817C85.9559 17.1817 86.888 17.2889 87.6058 17.6151V14.0987C87.6058 13.5557 88.0392 13.318 88.5822 13.318C89.1251 13.318 89.5586 13.5511 89.5586 14.0987V22.6953Z" fill="white"/>
<path d="M95.0629 27.0904C95.0629 27.6334 94.6294 27.8501 94.0865 27.8501C93.5435 27.8501 93.11 27.6334 93.11 27.0904V18.1023C93.11 17.5593 93.5435 17.3426 94.0865 17.3426C94.6294 17.3426 95.0629 17.5593 95.0629 18.1023V27.0904ZM94.0865 13.7399C94.3706 13.7454 94.6412 13.8623 94.84 14.0654C95.0387 14.2685 95.1498 14.5416 95.1491 14.8258C95.1363 15.0993 95.0186 15.3574 94.8205 15.5465C94.6224 15.7355 94.3591 15.8409 94.0853 15.8409C93.8115 15.8409 93.5482 15.7355 93.3501 15.5465C93.152 15.3574 93.0343 15.0993 93.0215 14.8258C93.0208 14.5412 93.1322 14.2677 93.3314 14.0646C93.5307 13.8614 93.8019 13.7448 94.0865 13.7399" fill="white"/>
<path d="M102.895 26.2209C105.023 26.2209 105.782 26.1767 105.782 22.6392C105.782 18.9922 105.023 18.9713 102.895 18.9713C100.768 18.9713 100.031 18.9922 100.031 22.6392C100.031 26.1767 100.747 26.2209 102.895 26.2209ZM102.895 17.1699C106.435 17.1699 107.693 18.0811 107.693 22.6835C107.693 27.2859 106.435 28.0223 102.895 28.0223C99.3554 28.0223 98.1855 27.2859 98.1855 22.6835C98.1855 18.0811 99.3507 17.1699 102.895 17.1699Z" fill="white"/>
<path d="M33.8403 0C29.4774 0 25.2125 1.29369 21.5849 3.71757C17.9574 6.14145 15.13 9.58662 13.4604 13.6174C11.7908 17.6481 11.354 22.0835 12.2051 26.3625C13.0563 30.6416 15.1572 34.5721 18.2422 37.6571C21.3272 40.7421 25.2578 42.843 29.5368 43.6942C33.8158 44.5453 38.2512 44.1085 42.2819 42.4389C46.3127 40.7693 49.7578 37.942 52.1817 34.3144C54.6056 30.6868 55.8993 26.4219 55.8993 22.059C55.8993 16.2086 53.5753 10.5978 49.4384 6.4609C45.3015 2.32403 39.6907 0 33.8403 0V0ZM25.0922 15.5876C24.904 15.5911 24.7157 15.5841 24.5282 15.5667C24.2767 15.5397 24.0239 15.5257 23.7709 15.5247C22.7758 15.5247 22.7315 15.9908 22.6896 17.0837H24.7683C25.5466 17.0837 25.8286 17.5801 25.8286 18.2955C25.8286 19.0109 25.5466 19.5096 24.7683 19.5096H22.6896V26.6778C22.6896 27.4794 22.0814 27.8033 21.345 27.8033C20.6086 27.8033 20.026 27.4794 20.026 26.6778V19.5096H19.1801C18.4018 19.5096 18.1198 19.0109 18.1198 18.2955C18.1198 17.5801 18.4018 17.0837 19.1801 17.0837H20.026C20.047 13.9867 21.042 13.1408 23.7709 13.1408C25.8938 13.1408 26.3925 13.4437 26.3925 14.4621C26.3925 15.1985 25.8076 15.5876 25.0922 15.5876ZM36.6996 23.3943C36.6996 27.4258 35.637 27.9478 32.0622 27.9478C28.4875 27.9478 27.4458 27.4258 27.4458 23.3943V18.193C27.4458 17.3703 28.0517 17.0674 28.7881 17.0674C29.5245 17.0674 30.1117 17.3703 30.1117 18.193V23.1613C30.1117 25.1351 30.3052 25.438 32.0622 25.438C33.8193 25.438 34.0104 25.1351 34.0104 23.1613V18.1976C34.0104 17.375 34.6186 17.0721 35.355 17.0721C36.0914 17.0721 36.6996 17.375 36.6996 18.1976V23.3943ZM49.2835 26.6684C49.2835 27.4701 48.6753 27.794 47.9389 27.794C47.2025 27.794 46.6152 27.4701 46.6152 26.6684V21.7048C46.6152 19.7333 46.4009 19.4071 44.5575 19.4071C42.7142 19.4071 42.5418 19.7333 42.5418 21.7048V26.6684C42.5418 27.4701 41.9336 27.794 41.1995 27.794C40.4655 27.794 39.8549 27.4701 39.8549 26.6684V21.4671C39.8549 17.4356 40.9595 16.8927 44.5575 16.8927C48.1556 16.8927 49.2835 17.4356 49.2835 21.4671V26.6684Z" fill="white"/>
<path d="M59.8253 5.04285C56.6265 5.04285 53.4992 5.11045 50.4434 5.24561C50.8931 5.68838 51.3196 6.14977 51.732 6.62749C54.384 6.52185 57.0817 6.46904 59.8253 6.46904C91.285 6.46904 117.851 13.6092 117.851 22.059C117.851 30.5088 91.285 37.6513 59.8253 37.6513C57.0848 37.6513 54.3871 37.5977 51.732 37.4906C51.3196 37.9683 50.8931 38.4227 50.4434 38.8724C53.4946 39.0045 56.6219 39.0721 59.8253 39.0752C93.1632 39.0752 119.279 31.6018 119.279 22.0637C119.279 12.5256 93.1632 5.05218 59.8253 5.05218" fill="white"/>
<path d="M11.8341 30.6951C5.52115 28.204 1.79493 25.2235 1.79493 22.0589C1.79493 18.8942 5.52348 15.9137 11.8341 13.4226C12.0811 12.8012 12.3522 12.1891 12.6473 11.5863C4.92225 14.455 0.371094 18.0763 0.371094 22.0589C0.371094 26.0414 4.92225 29.6628 12.6473 32.5337C12.3522 31.9356 12.0811 31.3228 11.8341 30.6951" fill="white"/>
</svg>
