<svg width="683" height="83" viewBox="0 0 683 83" fill="none" xmlns="http://www.w3.org/2000/svg">
<path d="M334.463 28.9747L344.789 28.9747L344.789 57.8269L349.384 57.8269L349.384 28.9747L359.715 28.9747L359.715 24.996L334.463 24.996L334.463 28.9747Z" fill="white"/>
<path d="M404.153 38.687L388.091 38.687L388.091 24.996L383.496 24.996L383.496 57.8269L388.091 57.8269L388.091 42.6657L404.153 42.6657L404.153 57.8269L408.748 57.8269L408.748 24.996L404.153 24.996L404.153 38.687Z" fill="white"/>
<path d="M437.32 42.5258L451.06 42.5258L451.06 38.687L437.32 38.687L437.32 28.9256L452.766 28.9256L452.766 24.996L432.725 24.996L432.725 57.8269L453.951 57.8269L453.951 53.8949L437.32 53.8949L437.32 42.5258Z" fill="white"/>
<path d="M508.575 27.9123C507.393 26.7196 505.971 25.7911 504.403 25.1878C502.71 24.5435 500.91 24.223 499.099 24.2429C496.193 24.2429 493.587 24.8508 491.281 26.0665C489.032 27.2353 487.041 28.8466 485.43 30.8037C483.826 32.7566 482.579 34.9777 481.748 37.3644C480.908 39.7219 480.475 42.2054 480.469 44.7082C480.442 46.6786 480.775 48.6376 481.451 50.4885C482.045 52.1082 482.972 53.585 484.173 54.823C485.356 56.0155 486.778 56.944 488.346 57.5475C490.04 58.1936 491.84 58.515 493.652 58.495C496.598 58.495 499.216 57.8944 501.507 56.6934C503.758 55.5378 505.749 53.9341 507.358 51.9808C508.961 50.0234 510.196 47.7924 511.005 45.3955C511.829 43.0275 512.254 40.5392 512.262 38.0321C512.289 36.0616 511.957 34.1027 511.28 32.2518C510.692 30.6322 509.77 29.1539 508.575 27.9123V27.9123ZM503.912 43.643C503.427 45.1971 502.691 46.6613 501.732 47.9776C500.853 49.1931 499.742 50.2232 498.463 51.0088C497.246 51.7593 495.843 52.1538 494.413 52.1477C492.17 52.1477 490.552 51.4114 489.558 49.9387C488.565 48.466 488.067 46.5474 488.064 44.183C488.06 42.4623 488.325 40.7516 488.847 39.112C489.329 37.55 490.065 36.0781 491.026 34.7553C491.906 33.5397 493.016 32.5089 494.293 31.7216C495.511 30.9722 496.915 30.5785 498.345 30.5852C500.587 30.5852 502.206 31.3216 503.203 32.7942C504.199 34.2669 504.696 36.1863 504.693 38.5524C504.697 40.278 504.433 41.9938 503.91 43.6381L503.912 43.643Z" fill="white"/>
<path d="M561.283 28.2655C559.923 27.0506 558.326 26.1312 556.592 25.5655C554.566 24.9069 552.444 24.5868 550.314 24.6181C548.988 24.6181 547.496 24.6893 545.837 24.8317C544.096 24.9867 542.365 25.2325 540.65 25.568L533.022 57.2626C534.679 57.6182 536.356 57.8714 538.044 58.0209C539.78 58.1846 541.312 58.2664 542.639 58.2664C546.144 58.2664 549.286 57.7935 552.066 56.8477C554.68 55.9949 557.091 54.6149 559.15 52.793C561.107 51.0196 562.638 48.8261 563.627 46.377C564.669 43.8521 565.19 40.9935 565.19 37.8011C565.214 35.9676 564.876 34.1475 564.194 32.4454C563.549 30.8516 562.554 29.4231 561.283 28.2655V28.2655ZM556.661 43.974C556.089 45.6005 555.177 47.0865 553.986 48.3332C552.797 49.5397 551.358 50.4691 549.769 51.0552C547.987 51.7102 546.1 52.0322 544.202 52.005C543.571 52.005 543.073 52.0051 542.71 51.9805C542.347 51.956 541.991 51.9413 541.645 51.9093L546.666 30.9678C547.648 30.8746 548.611 30.8271 549.555 30.8255C550.816 30.7974 552.072 30.9739 553.276 31.3483C554.217 31.646 555.076 32.1566 555.787 32.8406C556.433 33.4897 556.912 34.2855 557.184 35.1601C557.479 36.1355 557.623 37.1503 557.611 38.1693C557.639 40.1435 557.317 42.1071 556.661 43.9691L556.661 43.974Z" fill="white"/>
<path d="M614.25 28.2655C612.89 27.05 611.293 26.1306 609.559 25.5655C607.532 24.9069 605.411 24.5868 603.281 24.6181C601.955 24.6181 600.463 24.6893 598.804 24.8317C597.062 24.9869 595.33 25.2327 593.615 25.568L585.989 57.2626C587.646 57.6182 589.323 57.8714 591.011 58.0209C592.745 58.1846 594.277 58.2664 595.605 58.2664C599.11 58.2664 602.253 57.7935 605.033 56.8477C607.646 55.9941 610.057 54.6142 612.117 52.793C614.074 51.0196 615.605 48.8261 616.594 46.377C617.636 43.8521 618.157 40.9935 618.157 37.8011C618.181 35.9676 617.842 34.1475 617.16 32.4454C616.515 30.8521 615.52 29.4238 614.25 28.2655V28.2655ZM609.628 43.974C609.055 45.6005 608.143 47.0865 606.952 48.3332C605.764 49.5397 604.324 50.4691 602.736 51.0552C600.954 51.7101 599.067 52.032 597.169 52.005C596.536 52.005 596.04 52.0051 595.677 51.9805C595.313 51.956 594.957 51.9413 594.611 51.9093L599.633 30.9678C600.615 30.8746 601.578 30.8271 602.522 30.8255C603.783 30.7974 605.039 30.9739 606.243 31.3483C607.183 31.6453 608.042 32.156 608.752 32.8406C609.399 33.4887 609.879 34.2848 610.151 35.1601C610.445 36.1356 610.588 37.1504 610.575 38.1693C610.604 40.1433 610.283 42.1069 609.628 43.9691L609.628 43.974Z" fill="white"/>
<path d="M661.221 25.1363C660.35 24.8712 659.465 24.6581 658.57 24.4981C657.598 24.322 656.612 24.2349 655.624 24.238C653.669 24.2021 651.72 24.4653 649.844 25.0185C648.349 25.4604 646.956 26.1937 645.745 27.1759C644.688 28.0526 643.847 29.1624 643.291 30.4183C642.733 31.6958 642.451 33.0767 642.464 34.4706C642.445 35.4936 642.605 36.512 642.937 37.4798C643.242 38.3283 643.673 39.126 644.216 39.8459C644.77 40.5738 645.423 41.2199 646.158 41.7653C646.933 42.3466 647.74 42.8842 648.575 43.3754C649.23 43.7567 649.893 44.1052 650.566 44.421C651.194 44.7153 651.796 45.0635 652.365 45.4617C652.869 45.8102 653.317 46.2341 653.693 46.7184C654.043 47.1895 654.225 47.764 654.211 48.3506C654.241 49.0621 654.051 49.7656 653.668 50.3657C653.313 50.8804 652.832 51.2959 652.272 51.5733C651.659 51.871 651.003 52.0707 650.328 52.1649C649.606 52.2754 648.878 52.3311 648.148 52.3318C647.351 52.3336 646.557 52.2463 645.78 52.0716C645.048 51.9054 644.328 51.6915 643.624 51.431C643 51.2031 642.39 50.9342 641.801 50.6259C641.329 50.3815 640.87 50.1119 640.426 49.8184L637.299 55.4637C637.824 55.8133 638.37 56.1298 638.934 56.4111C639.712 56.802 640.519 57.1304 641.349 57.3929C642.376 57.7162 643.421 57.9768 644.479 58.1734C645.705 58.4011 646.95 58.512 648.197 58.5047C650.051 58.5203 651.9 58.3026 653.7 57.8568C655.243 57.4863 656.699 56.8194 657.988 55.8932C659.172 55.0281 660.131 53.8908 660.784 52.5772C661.477 51.1136 661.817 49.508 661.778 47.8892C661.806 46.7371 661.596 45.5916 661.162 44.5241C660.76 43.589 660.198 42.7311 659.502 41.9887C658.786 41.2319 657.974 40.5719 657.087 40.0251C656.173 39.4557 655.225 38.9189 654.245 38.415C653.678 38.1302 653.138 37.8627 652.635 37.6099C652.161 37.3771 651.715 37.0905 651.307 36.7557C650.933 36.4458 650.62 36.0687 650.384 35.6439C650.135 35.119 650.014 34.5427 650.031 33.9621C650.048 33.3815 650.201 32.8131 650.48 32.3033C650.783 31.8252 651.198 31.427 651.687 31.1424C652.23 30.8286 652.823 30.6126 653.44 30.5042C654.127 30.3745 654.825 30.3103 655.524 30.3128C657.891 30.3006 660.199 31.0482 662.109 32.4457L665.189 26.9968C663.956 26.197 662.616 25.5748 661.208 25.1486L661.221 25.1363Z" fill="white"/>
<path d="M679.176 25.5858L678.882 25.0311C678.784 24.8543 678.671 24.6653 678.546 24.4714C678.837 24.3288 679.081 24.1042 679.246 23.8252C679.412 23.5461 679.493 23.2248 679.478 22.9006C679.478 21.5064 678.551 20.8094 676.697 20.8094C676.4 20.8131 676.104 20.8336 675.809 20.8707C675.439 20.9165 675.072 20.9829 674.709 21.0695L674.709 26.9774L676.386 26.9774L676.386 24.9378L677.075 24.9378C677.258 25.2191 677.414 25.5165 677.542 25.8263C677.682 26.1527 677.848 26.5381 678.033 26.9774L679.795 26.9774L679.456 26.2068C679.37 25.9834 679.272 25.7748 679.176 25.5858ZM677.525 23.443C677.264 23.5563 676.981 23.6067 676.697 23.5903L676.386 23.5903L676.386 22.2968C676.457 22.2825 676.529 22.2734 676.602 22.2698C676.688 22.2698 676.771 22.2698 676.847 22.2698C677.091 22.2548 677.334 22.3021 677.554 22.4072C677.638 22.457 677.705 22.5297 677.749 22.6167C677.792 22.7037 677.81 22.8014 677.799 22.8981C677.809 23.0056 677.789 23.1136 677.74 23.2099C677.691 23.3062 677.617 23.387 677.525 23.443V23.443Z" fill="white"/>
<path d="M682.507 21.4051C682.205 20.6675 681.755 19.9993 681.186 19.4415C680.636 18.9074 679.984 18.4899 679.269 18.2143C677.801 17.6514 676.177 17.6514 674.709 18.2143C673.995 18.4906 673.344 18.908 672.794 19.4415C672.225 19.9997 671.775 20.6677 671.471 21.4051C670.813 23.1026 670.813 24.9846 671.471 26.6822C671.776 27.4189 672.226 28.0868 672.794 28.6457C673.344 29.1793 673.995 29.5967 674.709 29.873C676.177 30.4358 677.801 30.4358 679.269 29.873C679.984 29.5973 680.636 29.1799 681.186 28.6457C681.755 28.0873 682.204 27.4193 682.507 26.6822C683.164 24.9846 683.164 23.1026 682.507 21.4051V21.4051ZM680.928 25.9213C680.737 26.4584 680.44 26.9517 680.055 27.3719C679.679 27.7763 679.22 28.0945 678.71 28.3046C677.606 28.7419 676.377 28.7419 675.273 28.3046C674.762 28.0939 674.303 27.7759 673.926 27.3719C673.541 26.9516 673.245 26.4583 673.054 25.9213C672.639 24.7006 672.639 23.3768 673.054 22.1561C673.245 21.6191 673.541 21.1258 673.926 20.7055C674.302 20.3008 674.762 19.9826 675.273 19.7728C676.377 19.3355 677.606 19.3355 678.71 19.7728C679.22 19.982 679.68 20.3003 680.055 20.7055C680.44 21.1257 680.737 21.619 680.928 22.1561C681.344 23.3768 681.344 24.7006 680.928 25.9213Z" fill="white"/>
<path d="M309.266 0.309265L283.813 31.8222L286.176 36.9348L285.416 37.8871L282.21 33.8471L268.013 15.9295L256.323 15.9295L276.364 41.2105L253.751 69.7903L252.658 71.1722L247.995 76.9696C250.486 79.3627 252.383 80.963 255.334 82.7843L260.937 75.4871L280.602 50.6086L278.239 45.4984L279 44.5461L282.205 48.5837L296.404 66.5013L308.09 66.5013L288.049 41.2203L310.665 12.643L311.754 11.2611L316.418 5.46119C314.315 3.44387 312.037 1.61637 309.612 -2.9751e-07L309.266 0.309265Z" fill="white"/>
<path d="M86.5795 40.3808C86.4822 40.2827 86.365 40.2065 86.2358 40.1574C86.1066 40.1087 85.9686 40.0878 85.8308 40.096L68.895 40.096C68.7677 40.0954 68.6416 40.12 68.5238 40.1683C68.4061 40.2166 68.299 40.2878 68.2089 40.3777C68.1188 40.4676 68.0473 40.5745 67.9987 40.6921C67.95 40.8097 67.9252 40.9359 67.9256 41.0631L67.9256 43.8318C67.9266 44.0882 68.0279 44.3339 68.2078 44.5165C68.3911 44.697 68.6378 44.7984 68.895 44.7988L81.4423 44.7988L81.4423 48.4805C79.0737 52.1892 74.4471 53.6693 68.7551 53.6693C59.4478 53.6693 53.7559 49.5188 53.7559 41.37C53.7559 33.2211 59.3791 29.1246 68.4827 29.1246C73.5389 29.1246 77.1813 30.5089 79.9794 33.2751C80.3255 33.6089 80.8507 33.6776 81.5306 33.1941L84.1766 31.3115C84.2881 31.232 84.3817 31.13 84.4514 31.0121C84.5203 30.8934 84.5622 30.761 84.5741 30.6243C84.5882 30.4875 84.5723 30.3493 84.5275 30.2193C84.4812 30.0903 84.4086 29.9724 84.314 29.8732C81.0054 26.7732 75.8092 24.3384 68.4974 24.3384C55.8102 24.3384 48.1646 30.8133 48.1646 41.4951C48.1646 52.177 55.8103 58.6494 68.5809 58.6494C77.3212 58.6494 83.6783 55.3015 86.7095 50.6674C86.8153 50.5031 86.8684 50.3105 86.8618 50.1152L86.8618 41.1196C86.8738 40.9821 86.8545 40.8436 86.8053 40.7146C86.7539 40.5889 86.6771 40.4753 86.5795 40.3808V40.3808Z" fill="white"/>
<path d="M99.6406 56.6568L99.6406 26.2214C99.6406 25.686 99.2066 25.2519 98.6711 25.2519L95.0557 25.2519C94.5203 25.2519 94.0861 25.686 94.0861 26.2214L94.0861 56.6568C94.0861 57.1922 94.5202 57.6263 95.0557 57.6263L98.6711 57.6263C99.2066 57.6263 99.6406 57.1922 99.6406 56.6568Z" fill="white"/>
<path d="M142.772 25.3766C142.635 25.2998 142.482 25.2568 142.325 25.2514L138.447 25.2514C138.27 25.2532 138.096 25.303 137.945 25.3955C137.794 25.488 137.671 25.6197 137.588 25.7767L124.197 51.9241L110.817 25.7349C110.735 25.578 110.611 25.4462 110.46 25.3538C110.309 25.2613 110.136 25.2115 109.958 25.2097L105.982 25.2097C105.82 25.2127 105.662 25.2557 105.521 25.3348C105.31 25.4577 105.153 25.6543 105.08 25.8865C105.006 26.1188 105.022 26.37 105.123 26.5915L120.927 57.0269C121.011 57.1816 121.135 57.3108 121.287 57.401C121.438 57.4913 121.61 57.5392 121.786 57.5399L126.523 57.5399C126.701 57.5407 126.876 57.4932 127.029 57.4024C127.183 57.3136 127.31 57.1836 127.395 57.0269L143.184 26.5915C143.246 26.4477 143.27 26.2907 143.256 26.135C143.243 25.9795 143.192 25.8295 143.108 25.6981C143.023 25.5661 142.908 25.4559 142.772 25.3766V25.3766Z" fill="white"/>
<path d="M185.052 25.3815C184.917 25.3037 184.766 25.2591 184.61 25.2514L180.725 25.2514C180.551 25.2498 180.38 25.2945 180.229 25.3807C180.078 25.467 179.953 25.5917 179.866 25.7423L166.489 51.8823L153.11 25.7349C153.027 25.5759 152.902 25.4427 152.749 25.3496C152.594 25.2584 152.418 25.2101 152.238 25.2097L148.277 25.2097C148.115 25.2127 147.956 25.2557 147.815 25.3348C147.675 25.4154 147.556 25.5292 147.469 25.6662C147.383 25.8036 147.334 25.9608 147.327 26.1227C147.317 26.2841 147.348 26.4454 147.418 26.5915L163.207 57.0269C163.29 57.1827 163.414 57.3125 163.566 57.4024C163.714 57.4907 163.884 57.5381 164.056 57.5399L168.794 57.5399C168.97 57.5392 169.142 57.4913 169.293 57.401C169.445 57.3108 169.569 57.1816 169.653 57.0269L185.454 26.5915C185.515 26.4484 185.541 26.2925 185.528 26.1375C185.514 25.983 185.464 25.8342 185.381 25.703C185.299 25.5708 185.186 25.4604 185.052 25.3815V25.3815Z" fill="white"/>
<path d="M207.234 24.3508C194.77 24.3508 187.108 30.8256 187.108 41.5075C187.108 52.1893 194.795 58.6618 207.234 58.6618C219.673 58.6618 227.373 52.1868 227.373 41.5075C227.373 30.8281 219.693 24.3508 207.234 24.3508ZM207.234 53.6816L207.234 53.7504C198.398 53.7504 192.753 49.3642 192.753 41.5075C192.753 33.6507 198.445 29.2499 207.234 29.2499C216.024 29.2499 221.681 33.6335 221.681 41.5075C221.681 49.3814 216.038 53.6841 207.234 53.6841L207.234 53.6816Z" fill="white"/>
<path d="M31.704 37.2588L12.7556 14.7636C12.6229 14.6056 12.4368 14.5017 12.2327 14.4715C12.0289 14.4402 11.8207 14.4857 11.6486 14.5991L3.46288 20.1315C2.39748 20.8525 1.52487 21.8233 0.921166 22.9592C0.317464 24.0952 0.00107119 25.3617 -0.000337794 26.6481L-0.000339072 55.8931C-0.00200747 56.0423 0.0362915 56.1892 0.110519 56.3187C0.184747 56.4482 0.292257 56.5555 0.421882 56.6294C0.551228 56.7054 0.698888 56.7445 0.848897 56.7423C0.998454 56.7419 1.14513 56.7012 1.27351 56.6245L31.4929 38.5179C31.5958 38.4551 31.6845 38.3715 31.7531 38.2725C31.8193 38.1712 31.8644 38.0577 31.8857 37.9387C31.905 37.8192 31.8983 37.6969 31.866 37.5803C31.8353 37.4629 31.7801 37.3533 31.704 37.2588Z" fill="white"/>
<path d="M12.4711 56.9263C12.3479 56.8378 12.206 56.779 12.0563 56.7545C11.9056 56.7318 11.7516 56.7452 11.6071 56.7938L2.67285 59.56C2.50416 59.6132 2.35318 59.7115 2.23637 59.8443C2.11955 59.9771 2.04131 60.1394 2.01009 60.3135C1.97906 60.4872 1.99608 60.6662 2.05923 60.831C2.12238 60.9958 2.22925 61.1402 2.36844 61.2487L11.315 68.1678C11.4584 68.2743 11.6281 68.3396 11.8059 68.3568C11.985 68.3712 12.1647 68.3373 12.3263 68.2586C12.4862 68.1769 12.6206 68.053 12.7149 67.9002C12.8093 67.7474 12.8598 67.5718 12.8613 67.3922L12.8613 57.7068C12.8628 57.5542 12.8275 57.4036 12.7582 57.2675C12.6922 57.1318 12.5936 57.0145 12.4711 56.9263V56.9263Z" fill="white"/>
</svg>
