<svg width="48" height="48" viewBox="0 0 48 48" fill="none" xmlns="http://www.w3.org/2000/svg">
<rect width="48" height="48" rx="9" fill="#D477AD"/>
<g filter="url(#filter0_d)">
<path d="M24.5003 13.0111C19.7899 13.0111 15.3169 12.5924 13.6084 16.9737C12.9027 18.7833 13.0052 21.1333 13.0052 24.4984C13.0052 27.4512 12.9105 30.2265 13.6084 32.0218C15.313 36.4057 19.8223 35.9857 24.4977 35.9857C29.0083 35.9857 33.659 36.4549 35.3883 32.0218C36.0953 30.1941 35.9915 27.879 35.9915 24.4984C35.9915 20.0108 36.2393 17.1137 34.0612 14.9386C31.8558 12.735 28.8734 13.0111 24.4951 13.0111H24.5003ZM23.4703 15.0812C33.2958 15.0656 34.5463 13.9742 33.8562 29.1363C33.611 34.4989 29.5246 33.9104 24.5016 33.9104C15.3429 33.9104 15.0795 33.6486 15.0795 24.4932C15.0795 15.2315 15.806 15.0864 23.4703 15.0786V15.0812ZM30.6364 16.988C29.8749 16.988 29.2574 17.605 29.2574 18.3659C29.2574 19.1268 29.8749 19.7438 30.6364 19.7438C31.3979 19.7438 32.0154 19.1268 32.0154 18.3659C32.0154 17.605 31.3979 16.988 30.6364 16.988V16.988ZM24.5003 18.5992C21.2402 18.5992 18.5977 21.2409 18.5977 24.4984C18.5977 27.7558 21.2402 30.3963 24.5003 30.3963C27.7603 30.3963 30.4016 27.7558 30.4016 24.4984C30.4016 21.2409 27.7603 18.5992 24.5003 18.5992V18.5992ZM24.5003 20.6693C29.5661 20.6693 29.5726 28.3275 24.5003 28.3275C19.4357 28.3275 19.428 20.6693 24.5003 20.6693Z" fill="white"/>
</g>
<defs>
<filter id="filter0_d" x="13" y="13" width="25.2" height="25.2" filterUnits="userSpaceOnUse" color-interpolation-filters="sRGB">
<feFlood flood-opacity="0" result="BackgroundImageFix"/>
<feColorMatrix in="SourceAlpha" type="matrix" values="0 0 0 0 0 0 0 0 0 0 0 0 0 0 0 0 0 0 127 0" result="hardAlpha"/>
<feOffset dx="1.2" dy="1.2"/>
<feGaussianBlur stdDeviation="0.5"/>
<feColorMatrix type="matrix" values="0 0 0 0 0 0 0 0 0 0 0 0 0 0 0 0 0 0 0.15 0"/>
<feBlend mode="normal" in2="BackgroundImageFix" result="effect1_dropShadow"/>
<feBlend mode="normal" in="SourceGraphic" in2="effect1_dropShadow" result="shape"/>
</filter>
</defs>
</svg>
