<svg width="24" height="24" viewBox="0 0 24 24" fill="none" xmlns="http://www.w3.org/2000/svg">
<path d="M12 1.13659e-06C18.63 5.08627e-07 24 5.37001 24 12C24 18.6299 18.63 23.9999 12 23.9999C5.37008 23.9999 5.31797e-06 18.63 4.78299e-06 12C4.248e-06 5.36996 5.37002 1.76456e-06 12 1.13659e-06ZM10.8 18L13.2 18L13.2 10.8L10.8 10.8L10.8 18ZM10.8 8.39997L13.2 8.39997L13.2 5.99996L10.8 5.99996L10.8 8.39997Z" fill="#F48150"/>
</svg>
