<svg width="167" height="50" viewBox="0 0 167 50" fill="none" xmlns="http://www.w3.org/2000/svg">
<path d="M31.2547 16.4325C30.8714 17.3064 30.3147 18.0935 29.6185 18.7462C28.7989 19.5131 27.8577 20.1386 26.8332 20.5971C25.5564 21.165 24.2058 21.5496 22.8213 21.7396L23.0295 19.8643L24.4797 13.7624C24.4753 13.7108 24.4753 13.6589 24.4797 13.6074C24.484 13.5336 24.484 13.4597 24.4797 13.386C24.4931 13.0451 24.4078 12.7076 24.234 12.414C24.0745 12.1682 23.8638 11.9597 23.6162 11.8029C23.3637 11.6523 23.0862 11.5481 22.797 11.4952C22.5046 11.4436 22.2083 11.4177 21.9114 11.4177C21.0722 11.3877 20.2461 11.6317 19.5579 12.1129C18.9217 12.5869 18.3934 13.1906 18.0081 13.8841C17.606 14.6242 17.308 15.4162 17.1224 16.2377C16.922 17.045 16.7741 17.8644 16.6796 18.6908C16.5955 19.3853 16.5467 20.0837 16.5335 20.7831V22.0008C16.211 21.9299 15.8937 21.8374 15.5836 21.7241L14.4766 21.2813C14.0537 21.0975 13.5756 20.865 13.0575 20.5794C12.8494 20.4709 12.6788 20.3779 12.5393 20.3182C12.4008 20.2538 12.2493 20.222 12.0965 20.2252C11.8945 20.2172 11.6973 20.2887 11.5474 20.4244C11.4056 20.5732 11.3004 20.7528 11.2398 20.9492C11.1598 21.1993 11.1158 21.4594 11.1091 21.7219V22.5632C11.1022 23.0378 11.1535 23.5114 11.2618 23.9735C11.3913 24.4177 11.643 24.8166 11.9881 25.1248C12.4988 25.5821 13.0703 25.9665 13.6862 26.2673C14.6903 26.7785 15.7205 27.2367 16.7726 27.64V28.747C16.7726 29.4732 16.7726 30.3611 16.7261 31.4039C16.6796 32.4467 16.6265 33.5249 16.518 34.6674C16.408 35.8095 16.2403 36.9452 16.0154 38.0704C15.8199 39.1118 15.518 40.1305 15.1143 41.1102C14.786 41.9236 14.3032 42.6657 13.6928 43.2955C13.4225 43.5675 13.1 43.7821 12.7446 43.9263C12.3893 44.0705 12.0084 44.1414 11.6249 44.1347C11.2476 44.1385 10.8749 44.0516 10.5381 43.8812C10.2014 43.7109 9.91051 43.4622 9.68993 43.156C9.1212 42.3886 8.68765 41.5298 8.40799 40.6165C8.04919 39.4812 7.79058 38.3165 7.63523 37.136C7.45811 35.8563 7.3326 34.5914 7.2588 33.3412C7.18131 32.0902 7.1349 30.9057 7.12605 29.8142C7.11719 28.7227 7.12605 27.8393 7.12605 27.1906C7.13029 25.5609 7.24639 23.9334 7.47361 22.3197C7.70173 20.6709 8.05781 19.0423 8.53858 17.4488C9.00756 15.9112 9.62526 14.4229 10.3829 13.0052C11.0821 11.6671 11.9685 10.4355 13.0153 9.34755C14.0085 8.31482 15.1821 7.4722 16.4781 6.86118C17.8366 6.24051 19.3154 5.92755 20.8088 5.94459C22.6082 5.89635 24.4033 6.14394 26.1225 6.67745C27.3603 7.07148 28.5068 7.70908 29.4945 8.55274C30.2827 9.23898 30.8908 10.1078 31.2657 11.0834C31.5977 11.9512 31.7731 12.871 31.7838 13.8C31.777 14.7074 31.5904 15.6044 31.2347 16.4391L31.2547 16.4325ZM37.3455 13.2509C37.3478 11.5937 37.0064 9.95392 36.3426 8.43539C35.6527 6.861 34.6282 5.45571 33.3403 4.31724C31.8767 3.04207 30.1786 2.06442 28.341 1.43899C26.0905 0.67985 23.726 0.314372 21.3513 0.358557C19.3966 0.347633 17.4553 0.68191 15.6168 1.34601C13.8175 2.00235 12.1349 2.9427 10.6331 4.1313C9.06823 5.37437 7.68374 6.82884 6.51935 8.45307C5.27824 10.1817 4.2425 12.0489 3.43298 14.017C2.55017 16.1252 1.88256 18.3171 1.44034 20.5595C0.979596 22.9444 0.749727 25.3682 0.753964 27.7972C0.753964 29.2585 0.827765 30.8016 0.975368 32.4268C1.12976 34.0718 1.37224 35.7074 1.70164 37.3265C2.022 38.9219 2.45474 40.4926 2.99677 42.0269C3.4748 43.4157 4.12811 44.7378 4.94076 45.9612C5.64411 47.0401 6.55744 47.9662 7.62637 48.6845C8.65765 49.3596 9.86775 49.7097 11.1002 49.6897C12.2581 49.7041 13.4063 49.4779 14.4722 49.0254C15.4952 48.5738 16.4364 47.9558 17.2575 47.1966C18.1056 46.4065 18.8403 45.5027 19.4405 44.511C20.0717 43.4796 20.6069 42.3924 21.0391 41.263C21.4706 40.1263 21.8033 38.9544 22.0332 37.7604C22.2551 36.6257 22.3869 35.4752 22.4273 34.3198V32.9072C22.4273 32.5685 22.4273 32.1899 22.4672 31.7803L22.5114 30.5448C22.5114 29.5817 22.5823 28.5168 22.6288 27.3677C24.8844 27.0535 27.0765 26.3862 29.1248 25.3905C30.8308 24.5564 32.3792 23.4327 33.7012 22.0694C34.8702 20.8547 35.7948 19.4266 36.4245 17.8628C37.0225 16.3972 37.3365 14.8315 37.3499 13.2487" fill="white"/>
<path d="M67.4672 32.3891C67.3782 33.039 67.2412 33.6813 67.0576 34.3109C66.8465 35.0735 66.5648 35.8147 66.2161 36.525C65.8993 37.1924 65.4836 37.8082 64.983 38.3516C64.7878 38.5856 64.5451 38.7754 64.2711 38.9086C63.997 39.0418 63.6978 39.1153 63.3932 39.1243C63.0714 39.1184 62.7603 39.0072 62.5076 38.8077C62.2662 38.6161 62.0704 38.3734 61.9342 38.097C61.7883 37.7787 61.6898 37.4408 61.642 37.094C61.5863 36.7135 61.5581 36.3295 61.5578 35.9449C61.5646 35.1936 61.6574 34.4455 61.8345 33.7154C62.0197 32.906 62.2784 32.1153 62.6073 31.353C62.9351 30.572 63.3299 29.8208 63.7874 29.1079C64.2385 28.4246 64.7577 27.7889 65.3372 27.2105C65.8449 26.6783 66.4337 26.2299 67.0819 25.8821C67.6646 25.5659 68.3163 25.3985 68.9793 25.395L67.4672 32.3891ZM42.0057 31.2246C42.0385 30.7042 42.105 30.1865 42.2049 29.6747C42.3075 29.1463 42.4557 28.6278 42.6477 28.1249C42.8329 27.6279 43.0927 27.1621 43.4182 26.7433C43.7716 26.3024 44.2225 25.9496 44.7354 25.7125C45.2483 25.4755 45.8092 25.3607 46.374 25.3773C46.5832 25.3924 46.784 25.4651 46.9544 25.5874C47.1248 25.7098 47.258 25.8769 47.3393 26.0702C47.6141 26.6127 47.7466 27.2161 47.7244 27.8238C47.7005 28.3912 47.4923 28.9353 47.1311 29.3736C46.7149 29.9363 46.2239 30.4398 45.672 30.8703C45.0976 31.3245 44.4674 31.7032 43.7968 31.9973C43.2142 32.2721 42.5809 32.4229 41.937 32.4401C41.9525 32.1235 41.968 31.7072 41.9989 31.2223L42.0057 31.2246ZM134.841 14.0325C135.181 12.6731 135.545 11.4251 135.93 10.2885C136.245 9.32419 136.651 8.3917 137.141 7.50329C137.557 6.77709 137.973 6.4073 138.39 6.4073C138.636 6.39425 138.88 6.4619 139.085 6.59995C139.252 6.72011 139.38 6.88626 139.455 7.07816C139.536 7.27018 139.588 7.4731 139.61 7.68038C139.632 7.873 139.645 8.06786 139.649 8.26048C139.616 8.92878 139.477 9.58768 139.24 10.2133C138.967 10.9985 138.627 11.8465 138.221 12.7572C137.815 13.6679 137.353 14.5941 136.833 15.5358C136.315 16.4768 135.821 17.358 135.35 18.1595L134.579 18.0754L133.869 17.9978C134.178 16.7107 134.503 15.389 134.841 14.0325V14.0325ZM166.238 36.6158C166.158 36.3391 166.031 36.0785 165.861 35.8453C165.691 35.6257 165.482 35.4395 165.244 35.2962C164.994 35.1527 164.712 35.0764 164.425 35.0748C164.025 35.0727 163.633 35.1742 163.284 35.3692C162.893 35.5922 162.522 35.8501 162.177 36.1397C161.808 36.4408 161.407 36.7575 161.013 37.0962C160.604 37.4497 160.171 37.7745 159.718 38.0681C159.231 38.3828 158.712 38.642 158.168 38.8408C157.585 39.0451 156.971 39.1441 156.354 39.1331C156 39.1124 155.651 39.0454 155.314 38.9339C154.924 38.8291 154.541 38.7058 154.165 38.5641C153.793 38.429 153.478 38.3051 153.215 38.1921L152.783 38.0305L152.905 37.5523C153.044 37.3663 153.323 37.0032 153.746 36.4718C154.169 35.9405 154.658 35.3227 155.221 34.5965L156.992 32.2829L158.797 29.8828C159.377 29.1101 159.886 28.4016 160.346 27.7684C160.674 27.299 160.978 26.8157 161.258 26.3182C161.759 26.213 162.239 26.0252 162.678 25.7625C162.879 25.6477 163.045 25.4791 163.156 25.2754C163.244 24.8231 163.291 24.3636 163.295 23.9027C163.325 23.3504 163.195 22.8012 162.923 22.3197C162.795 22.1241 162.616 21.967 162.406 21.8652C162.195 21.7634 161.961 21.7207 161.728 21.7418C161.664 21.7329 161.599 21.7329 161.535 21.7418C161.4 21.7777 161.264 21.8058 161.126 21.8259C160.926 21.8259 160.641 21.8879 160.253 21.9123C159.866 21.9366 159.368 21.9123 158.703 21.9123H157.114C156.7 21.8924 156.294 21.7925 155.918 21.6178C155.533 21.4319 155.148 21.2326 154.776 21.009C154.404 20.7854 154.005 20.5927 153.651 20.4067C153.299 20.2296 152.91 20.1371 152.515 20.1366C151.957 20.1413 151.401 20.2248 150.866 20.3846C150.231 20.5681 149.645 20.892 149.152 21.3322C148.534 21.8942 148.031 22.571 147.671 23.3249C147.166 24.3836 146.823 25.512 146.652 26.6725C146.619 26.8584 146.597 27.0444 146.582 27.2282C146.57 27.3978 146.57 27.5679 146.582 27.7374C146.572 28.0481 146.624 28.3576 146.737 28.6474C146.779 28.7544 146.854 28.8453 146.951 28.9076C147.048 28.9699 147.162 29.0004 147.277 28.995C147.455 28.9702 147.626 28.9106 147.781 28.8194C147.936 28.7282 148.072 28.6073 148.18 28.4636C148.635 27.939 149.047 27.3793 149.413 26.7898C149.588 26.513 149.79 26.2542 150.016 26.0171C150.191 25.8356 150.401 25.6917 150.633 25.5943C150.902 25.4902 151.187 25.4325 151.475 25.4238H152.732C152.926 25.4196 153.118 25.4458 153.303 25.5012C153.481 25.5446 153.653 25.6116 153.813 25.7005L154.368 25.9928C154.618 26.1268 154.875 26.2458 155.139 26.3492L149.36 34.1117C148.824 34.5013 148.265 34.857 147.684 35.1766C147.115 35.4689 146.404 35.8873 145.811 36.1641C145.278 36.4102 144.732 36.6267 144.175 36.8128C135.983 39.5981 134.537 37.2844 134.537 37.2844C134.211 36.8585 133.977 36.3691 133.851 35.8475C133.678 35.1405 133.598 34.4142 133.612 33.6866V31.3574C133.612 30.8947 133.649 30.5006 133.665 30.0688C133.68 29.6371 133.665 29.2031 133.711 28.7958C133.757 27.8481 133.811 26.8835 133.873 25.902C134.267 25.409 134.7 24.8584 135.17 24.2503C135.64 23.6414 136.096 23.0238 136.559 22.3905H145.689C145.89 22.3839 146.088 22.3335 146.268 22.2429C146.447 22.1522 146.605 22.0235 146.73 21.8658C147.057 21.4937 147.229 21.0103 147.21 20.5152C147.223 20.1227 147.147 19.7323 146.989 19.3728C146.932 19.2357 146.838 19.1179 146.716 19.0331C146.594 18.9483 146.451 18.9002 146.303 18.8945L145.284 18.8503L143.956 18.8037L142.483 18.7418L141.071 18.6864H139.933C139.692 18.6883 139.452 18.6757 139.213 18.6488C139.784 17.7631 140.32 16.8421 140.843 15.9233C141.341 15.0414 141.789 14.1322 142.184 13.2C142.552 12.3474 142.854 11.4681 143.088 10.5697C143.298 9.76851 143.409 8.94476 143.42 8.11659C143.423 7.22082 143.314 6.32818 143.094 5.45974C142.91 4.67819 142.603 3.93086 142.184 3.24569C141.823 2.6319 141.334 2.10326 140.75 1.69586C140.204 1.32443 139.559 1.12612 138.899 1.12683C138.325 1.14894 137.761 1.28502 137.241 1.52716C136.72 1.76929 136.252 2.1126 135.866 2.53715C134.781 3.63888 133.877 4.90464 133.187 6.28779C132.305 8.00706 131.564 9.79525 130.973 11.6347C130.309 13.6579 129.768 15.7192 129.352 17.8074C129.063 17.8472 128.771 17.8606 128.48 17.8473L127.06 17.8074H125.393C124.861 17.814 124.33 17.8584 123.803 17.9403C123.393 17.9982 122.994 18.1231 122.623 18.31C122.483 18.3708 122.364 18.4723 122.281 18.6013C122.199 18.7303 122.157 18.881 122.161 19.034V19.5432C122.177 19.7431 122.231 19.938 122.322 20.1167C122.43 20.3102 122.586 20.472 122.776 20.5861C123.042 20.7457 123.342 20.8406 123.651 20.8628C124.505 20.9558 125.201 21.0333 125.61 21.0953L126.717 21.2724L127.543 21.4429C127.804 21.4961 128.176 21.5581 128.65 21.62C128.502 22.685 128.395 23.75 128.309 24.8216C128.223 25.8931 128.194 26.9138 128.194 27.8636C128.187 29.7725 128.303 31.6798 128.542 33.5737L128.11 33.9965C127.667 34.4061 127.191 34.7693 126.66 35.2231C126.123 35.645 125.564 36.0368 124.984 36.3966C124.431 36.7629 123.856 37.0956 123.263 37.3929C122.75 37.6637 122.219 37.8982 121.674 38.0947C121.267 38.254 120.837 38.3431 120.4 38.3582C120.142 38.3756 119.887 38.2967 119.683 38.1368C119.502 37.9628 119.374 37.7409 119.313 37.497C119.23 37.1772 119.183 36.8488 119.174 36.5183V35.2984C119.196 34.8714 119.245 34.4462 119.32 34.0253C119.413 33.4231 119.541 32.7124 119.69 31.9021C119.838 31.0917 120 30.2282 120.177 29.2939C120.354 28.3596 120.509 27.4496 120.662 26.5795C120.815 25.7094 120.934 24.888 121.027 24.144C121.113 23.5662 121.161 22.9834 121.171 22.3993C121.164 22.1698 121.094 21.9466 120.969 21.7538C120.844 21.561 120.669 21.406 120.463 21.3056C119.869 20.9939 119.203 20.8471 118.534 20.8805C117.878 20.8713 117.228 21.0027 116.628 21.2658C116.063 21.5293 115.742 21.8525 115.662 22.2311L113.333 34.2998C113.218 34.8884 113.026 35.4593 112.762 35.998C112.522 36.4471 112.221 36.86 111.865 37.2246C111.567 37.5384 111.217 37.7989 110.831 37.9951C110.502 38.1723 110.134 38.2672 109.76 38.2719C109.538 38.278 109.321 38.2102 109.142 38.0792C108.964 37.9483 108.819 37.7768 108.719 37.5789C108.603 37.3606 108.519 37.1264 108.471 36.8837C108.411 36.6156 108.383 36.3414 108.387 36.0667C108.399 35.8064 108.434 35.5478 108.493 35.294C108.602 34.7848 108.664 34.1869 108.788 33.4187C108.912 32.6504 109.058 31.7603 109.231 30.7729C109.403 29.7854 109.556 28.7669 109.724 27.7241C109.893 26.6813 110.072 25.6407 110.234 24.6378L110.696 21.837C110.696 21.5669 110.519 21.3433 110.156 21.1573C109.58 20.9393 108.968 20.8327 108.352 20.8429C107.868 20.8486 107.396 20.9872 106.986 21.2436C106.578 21.5028 106.22 21.8319 105.927 22.2156C105.626 22.6308 105.367 23.076 105.157 23.544C104.935 24.0378 104.756 24.5249 104.601 24.9943C104.458 25.4301 104.34 25.8736 104.247 26.3227C104.16 26.7234 104.098 27.0466 104.067 27.2791C103.642 29.7013 103.282 31.8541 102.987 33.7375C102.934 34.0851 102.887 34.4017 102.85 34.7405C102.456 35.1102 102.077 35.5109 101.692 35.8054C101.307 36.0999 100.959 36.4298 100.585 36.7309C100.234 37.0079 99.8678 37.2659 99.4889 37.5036C99.1707 37.7128 98.8377 37.8986 98.4926 38.0593C98.2399 38.1924 97.9609 38.268 97.6756 38.2807C97.4171 38.2717 97.168 38.1812 96.964 38.0221C96.76 37.8631 96.6115 37.6437 96.5397 37.3951C96.2713 36.6159 96.1461 35.7945 96.17 34.9707C96.155 34.329 96.1913 33.6871 96.2785 33.0511C96.387 32.3559 96.4401 31.6452 96.5486 30.9367C96.6571 30.2282 96.7811 29.5242 96.9184 28.8445C97.0557 28.1647 97.173 27.5404 97.2903 26.9692C97.4076 26.3979 97.4896 25.913 97.5605 25.5034C97.616 25.211 97.6515 24.9151 97.6667 24.6178C97.7227 23.6542 97.4832 22.6964 96.9804 21.8724C96.7763 21.559 96.4954 21.3029 96.1645 21.1285C95.8335 20.9541 95.4635 20.8672 95.0896 20.8761C94.3454 20.8654 93.609 21.0267 92.9376 21.3477C92.1983 21.7498 91.5943 22.3614 91.2017 23.1057C91.0932 23.2916 90.9227 23.5839 90.6991 23.9913C90.4755 24.3987 90.2363 24.8415 89.9286 25.3573C89.6208 25.8732 89.3729 26.409 89.063 26.9714L88.1905 28.5677C87.9293 29.0769 87.6902 29.5264 87.4821 29.9116L87.0393 30.753H86.561C86.5716 30.5356 86.5946 30.319 86.6297 30.1042C86.685 29.781 86.7381 29.4024 86.8068 28.9618C86.8754 28.5212 86.953 28.0519 87.0393 27.5426C87.1257 27.0334 87.1943 26.5242 87.2607 26.0437C87.3271 25.5633 87.3913 25.1182 87.4378 24.7153C87.4783 24.398 87.5012 24.0786 87.5064 23.7588C87.5443 23.0286 87.3731 22.3028 87.0127 21.6665C86.8101 21.3951 86.5401 21.1812 86.2295 21.0461C85.9188 20.9109 85.5782 20.8592 85.2415 20.8961C84.8716 20.8761 84.5014 20.9308 84.1531 21.0566C83.8047 21.1825 83.4851 21.3771 83.2134 21.6289C82.7086 22.1295 82.3576 22.7641 82.2016 23.4577C81.9802 24.3898 81.7588 25.5167 81.5152 26.8297C81.2717 28.1426 81.0591 29.5065 80.8753 30.919C80.7978 31.4969 80.727 32.0615 80.6672 32.6238C79.9456 33.6298 79.1726 34.5979 78.3513 35.5242C78.0192 35.8873 77.665 36.2349 77.2952 36.5737C76.9392 36.8745 76.5651 37.1533 76.1749 37.4084C75.8287 37.6608 75.4578 37.8774 75.0679 38.0549C74.7411 38.216 74.3828 38.3029 74.0185 38.3095C73.8229 38.3247 73.6283 38.2695 73.47 38.1538C73.3116 38.038 73.1999 37.8694 73.155 37.6785C72.9987 37.1107 72.9307 36.5223 72.9535 35.9338C72.9557 35.0077 73.0357 34.0834 73.1927 33.1707C73.3476 32.1987 73.5247 31.2201 73.7107 30.2482C73.8967 29.2762 74.0716 28.3264 74.2332 27.4009C74.382 26.5675 74.4628 25.7234 74.4746 24.8769C74.4849 24.4844 74.4401 24.0924 74.3417 23.7123C74.2763 23.4633 74.1492 23.2349 73.972 23.0481C73.8251 22.8913 73.6333 22.7838 73.4229 22.7403C73.205 22.6912 72.9821 22.6675 72.7587 22.6695H71.6937C71.4894 22.6695 71.2852 22.6561 71.0826 22.6296C70.8842 22.6041 70.6899 22.5527 70.5048 22.4769C70.3136 22.397 70.1481 22.266 70.0265 22.0983L69.6413 21.5669C69.4987 21.3784 69.3268 21.2139 69.1321 21.0798C68.8763 20.9191 68.5769 20.8417 68.2753 20.8584C67.1644 20.8595 66.0666 21.0988 65.056 21.5603C63.9697 22.067 62.9598 22.7235 62.0559 23.5108C61.0778 24.3334 60.1975 25.2657 59.4324 26.2894C58.6346 27.3468 57.9398 28.4782 57.3578 29.6681C56.7771 30.8438 56.3143 32.0742 55.9762 33.3412C55.9825 33.4095 55.9662 33.4779 55.9297 33.536C55.4736 33.9367 54.9732 34.3065 54.3799 34.7781C53.4856 35.4526 52.5502 36.0708 51.5791 36.629C50.5931 37.194 49.5597 37.6719 48.4906 38.0571C47.5305 38.4201 46.5146 38.6133 45.4883 38.6283C45.2056 38.6306 44.9236 38.5971 44.6492 38.5287C44.3733 38.4668 44.1113 38.3541 43.8765 38.1966C43.6095 38.0129 43.3727 37.7888 43.1746 37.5324C42.9111 37.1978 42.6763 36.8415 42.4728 36.4674C43.8218 36.1045 45.1187 35.5703 46.3319 34.8777C47.4592 34.2485 48.4965 33.4703 49.416 32.5641C50.2239 31.7499 50.8966 30.8118 51.4086 29.7854C51.8765 28.8753 52.1252 27.8684 52.1349 26.8452C52.1484 26.0061 51.9885 25.1732 51.6655 24.3986C51.3587 23.6901 50.906 23.0542 50.3371 22.5322C49.7594 22.0103 49.0866 21.6044 48.3555 21.3366C47.5651 21.0467 46.7287 20.9026 45.8868 20.9115C44.8644 20.8983 43.8501 21.095 42.9067 21.4894C42.0192 21.8685 41.2007 22.3922 40.4846 23.0392C39.7545 23.7214 39.1205 24.4998 38.6004 25.3529C38.0636 26.2138 37.6142 27.126 37.2586 28.0762C36.9138 29.0205 36.6559 29.9942 36.4882 30.9854C36.3164 31.9122 36.2282 32.8525 36.2247 33.7951C36.2199 35.0705 36.4073 36.3394 36.7805 37.559C37.1344 38.7068 37.7023 39.7773 38.4543 40.714C39.2104 41.5995 40.1472 42.3129 41.2019 42.8062C42.4279 43.3552 43.7626 43.6186 45.1053 43.5767C46.0513 43.577 46.9941 43.4678 47.9149 43.2513C48.8326 43.0452 49.731 42.7616 50.6005 42.4033C51.4481 42.0782 52.2728 41.6965 53.0692 41.2608C53.8419 40.807 54.619 40.3354 55.2611 39.866L55.8323 39.4409C55.8788 39.5649 55.9098 39.6888 55.9563 39.804C56.2572 40.5886 56.7084 41.3068 57.2847 41.9184C57.8217 42.4869 58.4699 42.9391 59.1888 43.2468C59.8874 43.5511 60.641 43.7086 61.4029 43.7095C62.1295 43.7073 62.851 43.5877 63.5394 43.3553C64.2428 43.1079 64.9206 42.7928 65.5631 42.4143C66.7691 41.7305 67.8556 40.8549 68.78 39.8217C69.165 40.9125 69.7779 41.9088 70.5779 42.7442C70.9236 43.0795 71.3333 43.3419 71.7825 43.5157C72.2317 43.6895 72.7113 43.7713 73.1927 43.7561C74.1001 43.7497 74.9934 43.5305 75.8008 43.1162C76.6733 42.6957 77.4944 42.1756 78.2473 41.5664C78.9534 41.0016 79.6137 40.382 80.2223 39.7132C80.2091 39.9886 80.2353 40.2644 80.2998 40.5324C80.3555 41.0816 80.499 41.6184 80.7248 42.1221C80.9219 42.5699 81.2363 42.9562 81.6348 43.2402C82.0795 43.5022 82.5841 43.6455 83.1002 43.6564C83.6162 43.6673 84.1264 43.5453 84.5817 43.3022C85.0543 42.9681 85.4234 42.5077 85.6467 41.9738L91.888 29.6216H92.2666C92.0829 30.8858 91.919 32.057 91.7972 33.1641C91.6714 34.1881 91.6064 35.2187 91.6024 36.2504C91.5095 38.1322 91.815 40.0124 92.4991 41.7679C93.0924 43.0254 93.8276 43.6586 94.6911 43.6586C95.5502 43.6564 96.4038 43.5212 97.2216 43.2579C98.0204 43.0131 98.795 42.6951 99.5354 42.3081C100.266 41.9161 100.967 41.4722 101.634 40.9797L102.761 40.145C102.802 40.4057 102.859 40.6637 102.932 40.9177C103.098 41.5096 103.383 42.0612 103.771 42.5383C104.082 42.919 104.483 43.2159 104.938 43.4018C105.405 43.5809 105.903 43.6703 106.403 43.6653C107.075 43.657 107.74 43.5234 108.363 43.2712C109.068 42.9916 109.737 42.6289 110.355 42.1907C111.045 41.7063 111.69 41.1617 112.284 40.5634C112.935 39.9237 113.538 39.2378 114.09 38.511C114.239 39.1746 114.427 39.8289 114.653 40.4704C114.838 41.0199 115.098 41.5414 115.426 42.0202C115.718 42.4284 116.095 42.7677 116.533 43.0143C117.009 43.2673 117.543 43.3903 118.082 43.3708C118.738 43.3627 119.39 43.2794 120.026 43.1228C120.746 42.9505 121.452 42.7285 122.141 42.4586C122.865 42.1744 123.573 41.8529 124.264 41.4955C124.966 41.1324 125.637 40.7228 126.257 40.3531C126.852 39.999 127.422 39.6047 127.964 39.173C128.349 38.8785 129.082 38.4003 129.576 38.0217C129.737 38.4933 129.899 38.9494 130.094 39.3745C130.602 40.5914 131.395 41.6682 132.407 42.514C133.326 43.2845 135.547 43.6099 136.751 43.6099C139.047 43.5214 141.302 42.9702 143.38 41.9893L145.889 40.8003C145.977 40.9795 146.086 41.1481 146.212 41.3029C146.443 41.5939 146.738 41.8267 147.075 41.9826C147.463 42.1576 147.886 42.2416 148.311 42.2283C148.839 42.2116 149.361 42.1153 149.861 41.9427C150.484 42.2794 151.125 42.581 151.782 42.8461C152.367 43.0852 152.889 43.2778 153.332 43.4328C153.68 43.561 154.036 43.666 154.397 43.7472C154.561 43.7932 154.728 43.8273 154.898 43.849C155.747 43.8427 156.593 43.7469 157.422 43.5634C158.303 43.3701 159.17 43.1125 160.014 42.7929C160.85 42.4715 161.664 42.0942 162.45 41.6638C163.17 41.2729 163.854 40.8187 164.493 40.3066C165.025 39.8882 165.495 39.397 165.89 38.8475C166.208 38.434 166.391 37.9334 166.415 37.4128C166.402 37.1417 166.35 36.874 166.26 36.618" fill="white"/>
</svg>
