<svg width="128" height="48" viewBox="0 0 128 48" fill="none" xmlns="http://www.w3.org/2000/svg">
<path fill-rule="evenodd" clip-rule="evenodd" d="M84.1895 11.9395C83.7235 12.8018 78.9765 17.7118 76.8722 21.3774C75.0709 24.5187 72.9107 29.4917 72.5355 33.9869C70.5104 33.5884 64.4842 25.092 62.9228 22.2536C61.5959 19.8682 60.4913 17.3657 59.623 14.7779C58.9519 12.7854 58.1875 7.58647 57.4861 6.31177C57.4209 14.0275 59.1919 19.7345 62.3635 25.2202C63.7035 27.5621 70.9252 37.7667 73.922 37.289C74.6072 36.2054 74.959 31.596 75.4041 29.8109C76.2811 26.4015 77.5773 23.114 79.2632 20.0235C80.6008 17.5999 83.1362 14.2839 84.1895 11.9395V11.9395Z" fill="white"/>
<path fill-rule="evenodd" clip-rule="evenodd" d="M3.9204 12.338C4.00429 13.9203 4.50998 15.2346 4.76865 16.4557C4.98331 17.3421 5.29594 18.2018 5.70078 19.0191C6.61894 21.0371 7.46251 23.0809 8.62535 24.9731C9.81849 26.9143 11.0722 28.8601 12.4495 30.6754C13.6622 32.2594 14.9927 33.7496 16.4297 35.1334C17.4317 36.1028 18.5083 36.8952 19.839 37.3379C19.9518 37.3864 20.0688 37.4246 20.1885 37.4521C20.8573 36.5899 20.8736 35.0122 21.0321 33.6094C21.177 32.3616 21.4106 31.1257 21.7312 29.9111C22.8348 25.4569 24.7129 21.2313 27.2798 17.4275C27.8693 16.4953 28.4123 15.4979 29.0182 14.5425C29.6707 13.4892 30.0063 12.9112 30.5958 11.9278C29.3841 13.0115 27.902 15.1321 26.7531 16.472C22.2579 21.7339 20.1373 26.8491 18.7973 34.0405C16.8538 32.8753 13.6006 28.7157 12.1349 26.7069C11.3429 25.6472 10.6086 24.5457 9.935 23.4071C8.57874 21.0628 6.4395 16.4557 5.69379 13.7921C5.59167 13.3517 5.45291 12.9207 5.27898 12.5034L5.16713 11.9278C4.95973 11.8486 4.75231 12.1352 4.62647 11.2917C4.62039 11.2507 4.60351 11.2121 4.57754 11.1798C4.57754 11.1798 3.89943 11.9581 3.9204 12.338Z" fill="white"/>
<path fill-rule="evenodd" clip-rule="evenodd" d="M11.5884 32.9289C10.8893 32.4512 9.40486 32.1482 8.32591 31.3839C-1.31939 24.4464 1.33488 16.1877 3.60696 6.21614C3.70484 7.76582 3.79805 8.36006 3.75611 10.0099C3.74188 10.9072 3.80662 11.8039 3.94954 12.6898C4.115 13.6732 5.24755 14.0881 5.23357 12.7574C5.23357 11.9488 5.00053 11.1705 4.79079 10.3922C4.47891 9.32148 4.23683 8.2317 4.06606 7.12967C3.98954 6.59411 3.97233 6.0517 4.01477 5.51237C4.04041 5.24671 4.43191 4.24933 4.33869 4.05824C4.65795 4.72705 4.84903 6.32104 5.82079 8.17133C8.48437 13.0021 9.90357 13.0976 13.7603 16.4137C14.6225 17.1781 16.6942 19.9675 17.1416 20.7179C18.8474 23.5376 17.6986 25.3389 18.0341 28.4639C18.0737 28.8368 17.9898 29.466 18.2928 29.7853C18.0854 27.5062 19.458 25.579 18.5608 22.2792C16.566 15.5049 9.04367 13.0324 6.53855 6.79873C6.30552 6.19284 6.12609 5.60325 5.93267 4.98105C5.34309 2.7812 5.83712 -0.933355 4.35502 0.215504C4.06839 0.448539 3.94022 0.965863 3.82836 1.2525C3.57435 2.00054 3.28773 2.75093 3.0477 3.54791C2.58163 5.14186 2.20412 6.48179 1.74038 8.1876C0.162739 14.1486 -0.874277 22.8851 3.41589 27.9396C4.95624 29.6501 9.47477 33.2645 11.5884 32.9289Z" fill="white"/>
<path fill-rule="evenodd" clip-rule="evenodd" d="M109.171 30.5379C107.847 38.1255 97.2462 36.1797 98.5046 28.4965C98.9706 25.6116 101.301 23.1553 104.834 23.8102C107.448 24.3042 109.76 27.2358 109.171 30.5379V30.5379ZM98.663 34.3643C101.949 39.9921 110.876 37.2819 111.196 29.629C111.291 28.1309 110.93 26.6391 110.162 25.3497C109.393 24.0603 108.252 23.0337 106.889 22.405C101.804 20.0746 99.446 23.7752 98.4719 24.3811L98.4417 22.0368L96.6543 22.0694L96.7032 42.1104L98.5372 42.143L98.663 34.3643Z" fill="white"/>
<path fill-rule="evenodd" clip-rule="evenodd" d="M46.1351 30.5381C44.7648 23.0926 55.6895 20.8438 56.7847 28.5922C57.2788 32.0504 55.079 34.7606 52.3198 35.257C48.8616 35.8629 46.6781 33.3927 46.1351 30.5381ZM56.7801 24.7565C55.8223 23.5284 55.3446 22.6591 53.6551 22.0626C51.9979 21.5235 50.2011 21.6063 48.6005 22.2956C46.2888 23.3326 44.2009 25.9146 44.1217 29.4544C43.9469 37.4731 52.907 39.2093 56.1905 35.2081C56.2534 35.1452 56.4445 34.8725 56.5098 34.8095C56.6111 34.6638 56.7345 34.5349 56.8756 34.4274V36.9465L58.677 36.9791V22.1046L56.8919 22.1674L56.7801 24.7565Z" fill="white"/>
<path fill-rule="evenodd" clip-rule="evenodd" d="M80.8738 30.3304C79.7576 22.8733 90.7265 21.009 91.5934 28.7668C92.4067 36.1493 82.0599 38.1254 80.8738 30.3304ZM91.619 24.5279C91.5592 24.4937 91.5049 24.4504 91.4582 24.3997C91.4016 24.362 91.3485 24.3191 91.2997 24.2715L91.0271 24.0152C90.6612 23.6191 90.6612 23.3953 89.9598 22.8686C89.3732 22.4624 88.7281 22.148 88.0466 21.9365C83.3859 20.6315 78.8488 24.4557 78.8791 29.6686C78.9117 36.4453 86.0379 39.2347 90.0647 35.9186L91.612 34.4831L91.6284 36.923L93.4437 36.8927L93.3971 22.4795C93.2526 22.1136 93.3015 22.081 92.6001 22.0484C91.2438 22.0018 91.6283 22.9083 91.612 24.5372L91.619 24.5279Z" fill="white"/>
<path fill-rule="evenodd" clip-rule="evenodd" d="M115.115 28.4175C115.945 22.3259 124.395 21.8482 125.655 28.4175H115.115ZM127.089 32.0994C123.854 31.9736 125.669 32.6424 123.756 34.0126C119.739 36.9465 115.388 34.7304 115.085 30.2351L127.408 30.2025C127.886 27.2849 125.863 22.4541 121.582 21.8133C117.119 21.1282 114.057 24.2671 113.426 27.8232C112.629 32.2229 115.148 36.2125 118.417 37.0701C122.738 38.2166 126.133 35.1242 127.105 32.1111L127.089 32.0994Z" fill="white"/>
<path fill-rule="evenodd" clip-rule="evenodd" d="M34.8483 23.9384L37.717 23.9198V36.979L39.5813 36.9464L39.5673 23.9687L42.7389 23.8895V22.1208L39.5976 22.0415L39.5813 16.8588L37.7333 16.8425L37.6377 22.0881L34.832 22.1044L34.8483 23.9384Z" fill="white"/>
<path fill-rule="evenodd" clip-rule="evenodd" d="M31.1191 36.9628H32.9694L32.9834 36.0376V23.0623L32.9694 22.1045H31.1191V23.0623V36.0376V36.9628Z" fill="white"/>
<path d="M32.9694 16.8588H31.1191V20.303H32.9694V16.8588Z" fill="white"/>
<path d="M106.787 41.6211L106.272 42.1524C105.843 41.7375 105.426 41.5302 105.016 41.5302C104.768 41.5247 104.528 41.6167 104.347 41.7865C104.261 41.8612 104.191 41.9535 104.143 42.0572C104.096 42.1609 104.07 42.2735 104.07 42.3877C104.076 42.602 104.158 42.807 104.303 42.9656C104.582 43.2409 104.909 43.4635 105.267 43.6228C105.73 43.832 106.144 44.1361 106.482 44.5154C106.69 44.7989 106.801 45.1422 106.798 45.4941C106.803 45.7361 106.758 45.9765 106.665 46.2C106.572 46.4234 106.433 46.6251 106.258 46.7921C106.082 46.9678 105.872 47.1057 105.641 47.1975C105.409 47.2892 105.162 47.3329 104.913 47.3258C104.557 47.327 104.205 47.2473 103.883 47.0927C103.566 46.9442 103.288 46.723 103.072 46.4472L103.576 45.874C103.986 46.34 104.42 46.5731 104.878 46.5731C105.181 46.5811 105.476 46.4708 105.699 46.2654C105.804 46.1759 105.889 46.0644 105.947 45.9389C106.006 45.8134 106.036 45.6768 106.037 45.5383C106.036 45.3126 105.953 45.0948 105.803 44.9255C105.507 44.6492 105.166 44.4247 104.794 44.2613C104.353 44.0648 103.961 43.7718 103.648 43.4038C103.446 43.1223 103.339 42.7832 103.345 42.4367C103.339 42.2174 103.379 41.9993 103.462 41.7963C103.545 41.5933 103.669 41.4098 103.827 41.2575C103.99 41.1025 104.182 40.9814 104.392 40.9013C104.602 40.8213 104.826 40.784 105.051 40.7915C105.627 40.7837 106.206 41.0602 106.787 41.6211Z" fill="white"/>
<path d="M109.087 45.9064C109.275 45.9064 109.456 45.9811 109.589 46.1142C109.722 46.2473 109.797 46.4278 109.797 46.616C109.797 46.8041 109.722 46.9847 109.589 47.1178C109.456 47.2508 109.275 47.3256 109.087 47.3256C108.994 47.3271 108.902 47.3092 108.817 47.2731C108.731 47.237 108.654 47.1834 108.591 47.1158C108.458 46.9826 108.383 46.8019 108.383 46.6136C108.383 46.4253 108.458 46.2447 108.591 46.1114C108.655 46.0449 108.732 45.9924 108.817 45.9571C108.903 45.9218 108.995 45.9045 109.087 45.9064V45.9064Z" fill="white"/>
<path d="M111.146 40.9408H111.964V41.8497C112.167 41.5333 112.43 41.2601 112.738 41.0457C112.987 40.8751 113.282 40.7827 113.584 40.78C113.831 40.7901 114.072 40.863 114.283 40.9921L113.864 41.6656C113.731 41.6023 113.588 41.5659 113.442 41.5584C113.152 41.5678 112.876 41.685 112.668 41.8869C112.387 42.1667 112.19 42.5206 112.102 42.9076C112.002 43.2641 111.953 43.9796 111.953 45.0608V47.1582H111.135L111.146 40.9408Z" fill="white"/>
<path d="M115.857 45.9066C115.949 45.905 116.041 45.9224 116.127 45.9577C116.212 45.9929 116.289 46.0453 116.353 46.1116C116.486 46.2449 116.561 46.4255 116.561 46.6138C116.561 46.8021 116.486 46.9827 116.353 47.116C116.288 47.1819 116.211 47.2342 116.126 47.2699C116.04 47.3056 115.948 47.324 115.856 47.324C115.763 47.324 115.672 47.3056 115.586 47.2699C115.501 47.2342 115.423 47.1819 115.358 47.116C115.255 47.019 115.183 46.8926 115.153 46.7538C115.123 46.6149 115.135 46.4702 115.189 46.3388C115.244 46.2075 115.337 46.0958 115.456 46.0185C115.575 45.9413 115.715 45.9023 115.857 45.9066V45.9066Z" fill="white"/>
<path d="M121.166 40.7797C121.616 40.7691 122.063 40.8568 122.475 41.0367C122.887 41.2166 123.255 41.4844 123.553 41.8214C124.114 42.4445 124.421 43.256 124.412 44.0949C124.403 44.9337 124.079 45.7384 123.504 46.3492C123.198 46.6586 122.834 46.9042 122.432 47.0719C122.031 47.2395 121.6 47.3258 121.165 47.3258C120.73 47.3258 120.3 47.2395 119.898 47.0719C119.497 46.9042 119.133 46.6586 118.827 46.3492C118.252 45.7394 117.927 44.9354 117.918 44.0972C117.909 43.259 118.216 42.4481 118.778 41.826C119.075 41.4876 119.443 41.2184 119.856 41.0377C120.269 40.8569 120.716 40.7688 121.166 40.7797V40.7797ZM121.166 41.5627C120.845 41.5598 120.526 41.6239 120.23 41.7511C119.934 41.8783 119.668 42.0657 119.449 42.3014C119.216 42.5359 119.033 42.8147 118.909 43.1213C118.786 43.4279 118.726 43.756 118.731 44.0865C118.729 44.5274 118.842 44.9613 119.06 45.3449C119.266 45.721 119.571 46.033 119.943 46.2467C120.317 46.4546 120.738 46.5637 121.166 46.5637C121.595 46.5637 122.016 46.4546 122.39 46.2467C122.762 46.0336 123.068 45.7215 123.273 45.3449C123.491 44.9613 123.604 44.5274 123.602 44.0865C123.608 43.7558 123.547 43.4274 123.423 43.1207C123.299 42.814 123.115 42.5354 122.882 42.3014C122.662 42.0664 122.396 41.8794 122.1 41.7523C121.805 41.6252 121.486 41.5606 121.164 41.5627H121.166Z" fill="white"/>
<path d="M126.775 45.9066C126.867 45.905 126.959 45.9224 127.044 45.9577C127.13 45.9929 127.207 46.0453 127.271 46.1116C127.404 46.2449 127.479 46.4255 127.479 46.6138C127.479 46.8021 127.404 46.9827 127.271 47.116C127.206 47.1819 127.129 47.2342 127.043 47.2699C126.958 47.3056 126.866 47.324 126.774 47.324C126.681 47.324 126.59 47.3056 126.504 47.2699C126.419 47.2342 126.341 47.1819 126.276 47.116C126.173 47.019 126.101 46.8926 126.071 46.7538C126.04 46.6149 126.053 46.4702 126.107 46.3388C126.162 46.2075 126.255 46.0958 126.374 46.0185C126.493 45.9413 126.633 45.9023 126.775 45.9066V45.9066Z" fill="white"/>
</svg>
